{
    "KPlugin": {
        "Icon": "preferences-plugin",
        "License": "GPL",
        "Name": "KDE Partition Manager Dummy Backend",
        "Name[ca@valencia]": "Dorsal fals del gestor de particions de KDE",
        "Name[ca]": "Dorsal fals del gestor de particions del KDE",
        "Name[cs]": "Podpůrná vrstva pro správce diskových oddílů pro KDE",
        "Name[da]": "KDE-partitionshåndtering med attrap-backend",
        "Name[de]": "KDE-Partitionsverwaltung Dummy-Backend",
        "Name[el]": "KDE Εικονικό σύστημα υποστήριξης διαχειριστή κατατμήσεων",
        "Name[en_GB]": "KDE Partition Manager Dummy Backend",
        "Name[eo]": "Lokokupa Internaĵo de KDE-Subdiskmastrumilo",
        "Name[es]": "Motor de simulación para el gestor de particiones de KDE",
        "Name[et]": "KDE partitsioonihalduri fiktiivne taustaprogramm",
        "Name[eu]": "KDE partizio kudeatzailearen gezurrezko bizkarraldekoa",
        "Name[fi]": "KDE:n osionhallinnan valetaustaosa",
        "Name[fr]": "Moteur de test pour le gestionnaire de partitions de KDE",
        "Name[gl]": "Infraestrutura de probas para o xestor de particións de KDE",
        "Name[hu]": "KDE partíciókezelő üres modul",
        "Name[ia]": "KDE Partition Manager (gerente de partition de KDE) RetroAdministration ficte (Dummy Backend)",
        "Name[id]": "Backend Dumi Pengelola Partisi KDE",
        "Name[it]": "Motore fittizio del gestore delle partizioni di KDE",
        "Name[ka]": "KDE-ის დანაყოფების მმართველის შტერი უკანაბოლო",
        "Name[ko]": "KDE 파티션 관리자 더미 백엔드",
        "Name[lt]": "KDE skaidinių tvarkyklės netikra galinė sąsaja",
        "Name[nb]": "Attrapp-motor for KDE partisjonsbehandler",
        "Name[nl]": "Dummy backend van KDE-partitiebeheerder",
        "Name[nn]": "KDE-partisjonshandtering eksempelbakgrunnsmotor",
        "Name[pl]": "Fikcyjny silnik zarządzania partycjami",
        "Name[pt]": "Infra-Estrutura de Testes para o Gestor de Partições do KDE",
        "Name[pt_BR]": "Gerenciador de Partição do KDE Simulado Back-end",
        "Name[ru]": "Проверочный механизм для диспетчера разделов KDE",
        "Name[sk]": "Testovací program v pozadí KDE Správcu partícií",
        "Name[sl]": "KDE Partition Manager prazen zaledni program",
        "Name[sv]": "KDE:s partitionshanterare bakgrundsprogram för test",
        "Name[tr]": "KDE Bölüntü Yöneticisi Boş Arka Uç",
        "Name[uk]": "Тестовий додаток сервера Керування розділами KDE",
        "Name[x-test]": "xxKDE Partition Manager Dummy Backendxx",
        "Name[zh_CN]": "KDE 分区管理器虚拟后端程序",
        "Name[zh_TW]": "KDE 磁碟分割區管理員 (虛設後端)",
        "Version": "1"
    }
}
